0 0.177289
1 0.0326728
2 0.226413
3 0.211787
4 0.140882
5 0.233074
6 0.15295
7 0.238395
8 0.287575
9 0.046613
10 0.25268
11 0.217743
12 0.105977
13 0.22358
14 0.295859
15 0.196962
16 0.0727796
17 -0.0959546
18 0.0889251
19 0.404842
20 0.164704
21 0.0461742
22 0.108736
23 0.103838
24 0.1816
25 0.192758
26 0.359088
27 0.330477
28 0.396791
29 0.354891
30 0.146225
31 0.222718
32 0.141389
33 0.347088
34 0.273529
35 0.0601698
36 0.264448
37 0.141491
38 0.218165
39 0.0321831
40 0.139045
41 0.307623
42 0.18851
43 0.218465
44 0.18469
45 0.215349
46 0.111156
47 0.267604
48 0.112176
49 0.312123
50 -0.0312605
51 0.0419126
52 0.055152
53 -0.00391363
54 0.131248
55 0.014791
56 0.261628
57 0.319617
58 0.105521
59 0.210415
60 0.0726148
61 0.0545081
62 0.0514569
63 0.0668758
64 -0.219207
65 -0.280896
66 -0.339379
67 -0.218736
68 -0.299343
69 -0.272696
70 -0.362007
71 -0.175679
72 -0.262273
73 -0.232616
74 -0.212104
75 -0.254934
76 -0.0527216
77 -0.325064
78 -0.355613
79 -0.420112
80 -0.148099
81 -0.108873
82 -0.0160772
83 -0.309233
84 -0.152431
85 -0.089082
86 -0.18632
87 -0.0754215
88 -0.333337
89 -0.310594
90 -0.315754
91 -0.397805
92 -0.359753
93 -0.315266
94 -0.0911845
95 -0.272174
96 -0.305206
97 -0.251478
98 -0.439322
99 -0.171422
100 -0.28779
101 -0.248801
102 -0.0149907
103 -0.263046
104 -0.503443
105 -0.334217
106 -0.626978
107 -0.470914
108 -0.651988
109 -0.302961
110 -0.119744
111 -0.191649
112 -0.17264
113 -0.341342
114 -0.132891
115 -0.481405
116 -0.23517
117 0.113226
118 -0.204016
119 -0.13743
120 -0.325965
121 -0.636896
122 -0.400999
123 -0.359627
124 -0.427125
125 -0.443933
126 -0.367905
127 -0.229315
128 0.222063
129 0.26533
130 0.388788
131 -0.037181
132 0.311376
133 0.160466
134 0.37384
135 0.113992
136 0.332455
137 0.326777
138 0.33477
139 0.339303
140 0.274991
141 0.176229
142 0.13156
143 0.128322
144 0.0942858
145 0.36387
146 0.25393
147 0.209672
148 0.102445
149 0.157118
150 0.243283
151 0.285501
152 0.175156
153 0.288127
154 0.246143
155 0.214644
156 0.269191
157 0.0933107
158 0.143111
159 0.166764
160 0.180271
161 0.0485816
162 0.0753153
163 0.202032
164 -0.050493
165 0.241395
166 0.0861884
167 0.21128
168 0.139369
169 0.0602225
170 0.126775
171 0.154725
172 0.119003
173 0.183223
174 0.274333
175 0.0461237
176 0.210098
177 0.185747
178 0.0751169
179 0.333643
180 -0.0307376
181 0.169292
182 0.229864
183 0.0668332
184 0.235222
185 0.015034
186 0.151575
187 0.161636
188 0.0778898
189 0.0722721
190 0.149381
191 0.155847
192 -0.370812
193 -0.238152
194 -0.350493
195 -0.113133
196 -0.239148
197 -0.235336
198 -0.40538
199 -0.194136
200 -0.32037
201 -0.285409
202 -0.377124
203 -0.343116
204 -0.315403
205 -0.244495
206 -0.189962
207 -0.131968
208 -0.236241
209 -0.463546
210 -0.239713
211 -0.307897
212 -0.12264
213 -0.270564
214 -0.45991
215 -0.222471
216 -0.286127
217 -0.18371
218 -0.348838
219 -0.220539
220 -0.205715
221 -0.121513
222 -0.211623
223 -0.259419
224 -0.187038
225 -0.190658
226 -0.348604
227 -0.180133
228 -0.0821089
229 -0.482385
230 -0.147062
231 -0.304785
232 -0.344728
233 -0.33409
234 -0.22744
235 -0.46555
236 -0.252701
237 -0.325524
238 -0.706852
239 -0.15049
240 -0.315236
241 -0.469131
242 -0.398671
243 -0.781433
244 0.128359
245 -0.165387
246 -0.055917
247 -0.376686
248 -0.451101
249 -0.38534
250 -0.165978
251 -0.474056
252 -0.443756
253 -0.157151
254 -0.309373
255 -0.311619
256 -99999
257 -99999
258 -99999
259 -99999
260 -99999
261 -99999
262 -99999
263 -99999
264 -99999
265 -99999
266 -99999
267 -99999
268 -99999
269 -99999
270 -99999
271 -99999
272 -99999
273 -99999
274 -99999
275 -99999
276 -99999
277 -99999
278 -99999
279 -99999
280 -99999
281 -99999
282 -99999
283 -99999
284 -99999
285 -99999
286 -99999
287 -99999
288 -99999
289 -99999
290 -99999
291 -99999
292 -99999
293 -99999
294 -99999
295 -99999
296 -99999
297 -99999
298 -99999
299 -99999
300 -99999
301 -99999
302 -99999
303 -99999
304 -99999
305 -99999
306 -99999
307 -99999
308 -99999
309 -99999
310 -99999
311 -99999
312 -99999
313 -99999
314 -99999
315 -99999
316 -99999
317 -99999
318 -99999
319 -99999
320 0.0264944
321 0.0691046
322 -0.153078
323 -99999
324 0.105772
325 -0.18802
326 -99999
327 -0.0589789
328 -0.134542
329 0.0746833
330 -99999
331 -0.0137472
332 0.181533
333 0.0437811
334 0.0209338
335 -0.0542032
336 -99999
337 0.0662199
338 -0.0475545
339 0.193666
340 0.103487
341 -0.0498495
342 -99999
343 -0.0459952
344 0.221639
345 -0.300392
346 0.146017
347 0.181631
348 -99999
349 0.0915721
350 0.0689616
351 -99999
352 0.108674
353 -0.173501
354 -0.0819423
355 -99999
356 0.012244
357 -0.457158
358 -0.00837804
359 -0.130666
360 0.0634329
361 -99999
362 -0.326907
363 0.242128
364 -0.666897
365 -0.0689872
366 0.0494858
367 -99999
368 -0.180157
369 -0.548957
370 0.284194
371 -0.332821
372 -99999
373 -99999
374 -0.439243
375 0.232452
376 -99999
377 0.118591
378 0.629308
379 -99999
380 -99999
381 0.0134185
382 0.126636
383 -0.0169685
384 -0.049508
385 -99999
386 -99999
387 0.222394
388 -0.0268717
389 0.279719
390 -0.324189
391 -99999
392 -99999
393 0.37408
394 0.0670651
395 -0.158744
396 -0.441932
397 -99999
398 -99999
399 -0.170754
400 0.171683
401 -99999
402 -0.186943
403 0.323736
404 -99999
405 -99999
406 0.0442898
407 -0.283194
408 -0.376502
409 0.44397
410 -99999
411 -99999
412 0.329761
413 -0.800859
414 0.311907
415 0.284722
416 -99999
417 -99999
418 0.211082
419 -0.00687601
420 -99999
421 -99999
422 -99999
423 -99999
424 -99999
425 -99999
426 -99999
427 -99999
428 -99999
429 -0.102
430 -99999
431 -99999
432 -99999
433 -99999
434 -99999
435 -1.96942
436 -99999
437 -99999
438 -99999
439 -99999
440 -99999
441 -0.415965
442 -99999
443 -99999
444 -99999
445 -99999
446 -99999
447 -1.35093
448 -99999
449 -99999
450 -99999
451 -99999
452 -99999
453 -99999
454 -99999
455 -99999
456 -99999
457 -99999
458 -99999
459 -99999
460 -99999
461 -99999
462 -99999
463 -99999
464 -99999
465 -99999
466 -0.511304
467 -99999
468 -99999
469 -99999
470 -0.00995086
471 0.129112
472 -0.00343747
473 -99999
474 0.0645008
475 0.138798
476 -99999
477 0.17344
478 -0.133332
479 -0.0185502
480 -99999
481 -0.0230507
482 -0.0869378
483 -0.00610439
484 0.20325
485 0.14596
486 -99999
487 0.0982916
488 0.0495129
489 -0.00137072
490 -0.0745245
491 0.00159541
492 -99999
493 0.0553744
494 -0.146557
495 -0.146259
496 -0.114608
497 0.0422759
498 -99999
499 -0.133185
500 -0.584621
501 -99999
502 -0.388109
503 -0.0464981
504 0.0676026
505 -99999
506 0.0321999
507 0.137757
508 -0.000626804
509 -0.669512
510 -0.148451
511 -99999
512 -0.419695
513 -0.307125
514 -0.38171
515 -0.207232
516 0.0287891
517 -99999
518 -0.394589
519 0.1551
520 0.0945717
521 -0.219394
522 -99999
523 -99999
524 0.0204177
525 0.175388
526 -99999
527 -0.0847092
528 0.36718
529 -99999
530 -99999
531 0.00165757
532 0.00403705
533 -0.0237273
534 0.301604
535 -99999
536 -99999
537 0.264438
538 0.313243
539 0.375448
540 0.39794
541 -99999
542 -99999
543 0.314337
544 0.230464
545 0.65755
546 0.0958707
547 -99999
548 -99999
549 -0.0526476
550 0.30825
551 -99999
552 0.170181
553 0.49418
554 -99999
555 -99999
556 0.117157
557 0.310049
558 0.174902
559 0.0353787
560 -99999
561 -99999
562 -0.00916732
563 0.157725
564 0.198123
565 0.263817
566 -99999
567 -99999
568 0.419173
569 0.00906435
570 -99999
571 -99999
572 -0.636571
573 -99999
574 -99999
575 -99999
576 -99999
577 -99999
578 -99999
579 -1.5743
580 -99999
581 -99999
582 -99999
583 -99999
584 -99999
585 -0.382787
586 -99999
587 -99999
588 -99999
589 -99999
590 -99999
591 -0.942692
592 -99999
593 -99999
594 -99999
595 -99999
596 -99999
597 -1.44501
598 -99999
599 -99999
600 -99999
601 -99999
602 -99999
603 -99999
604 -99999
605 -99999
606 -99999
607 -99999
608 -99999
609 -99999
610 -99999
611 -99999
612 -99999
613 -99999
614 -99999
615 -99999
616 -99999
617 -99999
618 -99999
619 -99999
