0 0.187
1 0.0434734
2 0.222431
3 0.211593
4 0.134494
5 0.232229
6 0.147609
7 0.212933
8 0.282097
9 0.041202
10 0.237126
11 0.229535
12 0.108111
13 0.232284
14 0.297165
15 0.212169
16 0.0679917
17 -0.114019
18 0.0639547
19 0.414881
20 0.143544
21 0.037399
22 0.0939646
23 0.123751
24 0.201196
25 0.201871
26 0.324656
27 0.34398
28 0.38963
29 0.364452
30 0.159872
31 0.191942
32 0.124645
33 0.345648
34 0.28356
35 0.0540624
36 0.243832
37 0.14012
38 0.222329
39 0.0441195
40 0.122651
41 0.341596
42 0.195061
43 0.205867
44 0.210805
45 0.224407
46 0.109483
47 0.271583
48 0.104202
49 0.319032
50 -0.00412497
51 0.0477993
52 0.0580042
53 0.00919644
54 0.127245
55 -0.000214565
56 0.258501
57 0.3454
58 0.113424
59 0.216733
60 0.0608709
61 0.0590938
62 0.0561828
63 0.0903159
64 -0.212281
65 -0.292953
66 -0.346099
67 -0.193682
68 -0.260564
69 -0.274055
70 -0.36066
71 -0.161037
72 -0.235064
73 -0.248197
74 -0.211903
75 -0.246448
76 -0.0876373
77 -0.334106
78 -0.348495
79 -0.427189
80 -0.139076
81 -0.0888258
82 -0.0106315
83 -0.309628
84 -0.129528
85 -0.0993583
86 -0.162879
87 -0.0866992
88 -0.351347
89 -0.342846
90 -0.30891
91 -0.410756
92 -0.334338
93 -0.31799
94 -0.110585
95 -0.267638
96 -0.293309
97 -0.23429
98 -0.41867
99 -0.206133
100 -0.308589
101 -0.225748
102 -0.0120385
103 -0.252435
104 -0.489482
105 -0.344621
106 -0.604776
107 -0.47776
108 -0.629629
109 -0.308813
110 -0.126653
111 -0.219187
112 -0.146666
113 -0.352143
114 -0.147663
115 -0.511068
116 -0.24005
117 0.125339
118 -0.2068
119 -0.119107
120 -0.309757
121 -0.628824
122 -0.337582
123 -0.36413
124 -0.43301
125 -0.453939
126 -0.359497
127 -0.219307
128 0.216553
129 0.285814
130 0.380052
131 -0.0561348
132 0.303177
133 0.157559
134 0.349915
135 0.110967
136 0.322649
137 0.313584
138 0.317826
139 0.314547
140 0.248726
141 0.161508
142 0.120479
143 0.111255
144 0.0713964
145 0.380837
146 0.233252
147 0.202078
148 0.105693
149 0.148337
150 0.226855
151 0.287702
152 0.189558
153 0.30028
154 0.199319
155 0.199204
156 0.232681
157 0.134842
158 0.13919
159 0.147527
160 0.212043
161 0.027177
162 0.101248
163 0.219314
164 -0.0525845
165 0.233187
166 0.114851
167 0.200146
168 0.137359
169 0.0779528
170 0.170711
171 0.212833
172 0.105201
173 0.210524
174 0.2656
175 0.0274566
176 0.231216
177 0.168061
178 0.0923412
179 0.332907
180 -0.0245325
181 0.178134
182 0.22613
183 0.0689047
184 0.212245
185 0.0057643
186 0.139092
187 0.177666
188 0.0986493
189 0.100381
190 0.124168
191 0.16129
192 -0.399142
193 -0.232705
194 -0.361552
195 -0.120036
196 -0.225965
197 -0.218177
198 -0.41684
199 -0.198388
200 -0.312137
201 -0.294147
202 -0.393042
203 -0.384569
204 -0.282853
205 -0.257179
206 -0.164031
207 -0.0997894
208 -0.234975
209 -0.428722
210 -0.223012
211 -0.295122
212 -0.139116
213 -0.258827
214 -0.445166
215 -0.210224
216 -0.260536
217 -0.194869
218 -0.269706
219 -0.227618
220 -0.189126
221 -0.209336
222 -0.18018
223 -0.245226
224 -0.162577
225 -0.18954
226 -0.326975
227 -0.148667
228 -0.0755494
229 -0.473513
230 -0.125625
231 -0.263231
232 -0.306118
233 -0.292319
234 -0.235296
235 -0.427117
236 -0.213246
237 -0.31577
238 -0.693083
239 -0.130441
240 -0.288485
241 -0.505758
242 -0.412824
243 -0.742437
244 0.149455
245 -0.192838
246 -0.0130513
247 -0.392964
248 -0.466148
249 -0.365613
250 -0.217021
251 -0.41921
252 -0.429898
253 -0.107476
254 -0.292656
255 -0.28102
256 -99999
257 -99999
258 -99999
259 -99999
260 -99999
261 -99999
262 -99999
263 -99999
264 -99999
265 -99999
266 -99999
267 -99999
268 -99999
269 -99999
270 -99999
271 -99999
272 -99999
273 -99999
274 -99999
275 -99999
276 -99999
277 -99999
278 -99999
279 -99999
280 -99999
281 -99999
282 -99999
283 -99999
284 -99999
285 -99999
286 -99999
287 -99999
288 -99999
289 -99999
290 -99999
291 -99999
292 -99999
293 -99999
294 -99999
295 -99999
296 -99999
297 -99999
298 -99999
299 -99999
300 -99999
301 -99999
302 -99999
303 -99999
304 -99999
305 -99999
306 -99999
307 -99999
308 -99999
309 -99999
310 -99999
311 -99999
312 -99999
313 -99999
314 -99999
315 -99999
316 -99999
317 -99999
318 -99999
319 -99999
320 0.0294905
321 0.0746789
322 -0.161688
323 -99999
324 0.121337
325 -0.189972
326 -99999
327 -0.0782771
328 -0.122828
329 0.0715469
330 -99999
331 0.00951187
332 0.193088
333 0.0228647
334 0.0211002
335 -0.0759842
336 -99999
337 0.0343723
338 -0.0311713
339 0.202999
340 0.113739
341 -0.020143
342 -99999
343 -0.0430321
344 0.221981
345 -0.307257
346 0.139326
347 0.18853
348 -99999
349 0.0708721
350 0.0639386
351 -99999
352 0.137832
353 -0.188237
354 -0.0770739
355 -99999
356 -0.0103864
357 -0.468505
358 0.0149322
359 -0.132235
360 0.0875671
361 -99999
362 -0.293474
363 0.216597
364 -0.666147
365 -0.0731122
366 0.0199134
367 -99999
368 -0.172973
369 -0.549134
370 0.28403
371 -0.337083
372 -99999
373 -99999
374 -0.439499
375 0.237815
376 -99999
377 0.134175
378 0.611427
379 -99999
380 -99999
381 -0.0196458
382 0.116143
383 0.00392912
384 -0.0480304
385 -99999
386 -99999
387 0.256918
388 -0.044577
389 0.260766
390 -0.346826
391 -99999
392 -99999
393 0.360073
394 0.0618047
395 -0.157792
396 -0.444457
397 -99999
398 -99999
399 -0.203697
400 0.170047
401 -99999
402 -0.15786
403 0.31675
404 -99999
405 -99999
406 0.0243292
407 -0.312482
408 -0.331796
409 0.452848
410 -99999
411 -99999
412 0.358286
413 -0.809723
414 0.295772
415 0.27248
416 -99999
417 -99999
418 0.193387
419 -0.00728688
420 -99999
421 -99999
422 -99999
423 -99999
424 -99999
425 -99999
426 -99999
427 -99999
428 -99999
429 -99999
430 -99999
431 -99999
432 -99999
433 -99999
434 -99999
435 -2.08921
436 -99999
437 -99999
438 -99999
439 -99999
440 -99999
441 -0.352476
442 -99999
443 -99999
444 -99999
445 -99999
446 -99999
447 -1.34964
448 -99999
449 -99999
450 -99999
451 -99999
452 -99999
453 -99999
454 -0.868378
455 -99999
456 -99999
457 -99999
458 -99999
459 -99999
460 -99999
461 -99999
462 -99999
463 -99999
464 -99999
465 -99999
466 -0.0995455
467 -99999
468 -99999
469 -99999
470 -0.018737
471 0.131724
472 -0.0100616
473 -99999
474 0.0716502
475 0.142113
476 -99999
477 0.169329
478 -0.123102
479 -0.0264305
480 -99999
481 -0.0427743
482 -0.0961555
483 -0.00937322
484 0.17878
485 0.138981
486 -99999
487 0.128415
488 0.0634808
489 0.00924534
490 -0.0346028
491 -0.0213786
492 -99999
493 0.0915804
494 -0.115599
495 -0.150767
496 -0.123952
497 0.0481706
498 -99999
499 -0.145825
500 -0.584536
501 -99999
502 -0.387839
503 -0.0499776
504 0.0847991
505 -99999
506 0.0780371
507 0.1596
508 -0.00644033
509 -0.632048
510 -0.14021
511 -99999
512 -0.439947
513 -0.313695
514 -0.388245
515 -0.246335
516 0.0509295
517 -99999
518 -0.419426
519 0.118609
520 0.122765
521 -0.218645
522 -99999
523 -99999
524 0.00964091
525 0.170551
526 -99999
527 -0.0796019
528 0.364236
529 -99999
530 -99999
531 -0.0167251
532 0.00127896
533 -0.00997154
534 0.331545
535 -99999
536 -99999
537 0.226952
538 0.283916
539 0.370796
540 0.35449
541 -99999
542 -99999
543 0.263732
544 0.187569
545 0.657499
546 0.0903711
547 -99999
548 -99999
549 -0.0374733
550 0.315306
551 -99999
552 0.178794
553 0.479603
554 -99999
555 -99999
556 0.171705
557 0.312051
558 0.191059
559 0.0601329
560 -99999
561 -99999
562 -0.0667039
563 0.113662
564 0.162913
565 0.207909
566 -99999
567 -99999
568 0.348247
569 -0.00970778
570 -99999
571 -99999
572 -0.584603
573 -99999
574 -99999
575 -99999
576 -99999
577 -99999
578 -99999
579 -1.6261
580 -99999
581 -99999
582 -99999
583 -99999
584 -99999
585 -0.224828
586 -99999
587 -99999
588 -99999
589 -99999
590 -99999
591 -0.892487
592 -99999
593 -99999
594 -99999
595 -99999
596 -99999
597 -1.43756
598 -99999
599 -99999
600 -99999
601 -99999
602 -99999
603 -99999
604 -99999
605 -99999
606 -99999
607 -99999
608 -99999
609 -99999
610 -99999
611 -99999
612 -99999
613 -99999
614 -99999
615 -99999
616 -99999
617 -99999
618 -99999
619 -99999
