 mc16_13TeV:mc16_13TeV.504530.MGPy8EG_A14NNPDF23LO_GG_rpv_UDS_100_squarks.deriv.DAOD_SUSY4.e8258_s3126_r9364_p4237       
 mc16_13TeV:mc16_13TeV.504531.MGPy8EG_A14NNPDF23LO_GG_rpv_UDS_200_squarks.deriv.DAOD_SUSY4.e8258_s3126_r9364_p4237       
 mc16_13TeV:mc16_13TeV.504532.MGPy8EG_A14NNPDF23LO_GG_rpv_UDS_300_squarks.deriv.DAOD_SUSY4.e8258_s3126_r9364_p4237       
 mc16_13TeV:mc16_13TeV.504533.MGPy8EG_A14NNPDF23LO_GG_rpv_UDS_400_squarks.deriv.DAOD_SUSY4.e8258_s3126_r9364_p4237       
 mc16_13TeV:mc16_13TeV.504534.MGPy8EG_A14NNPDF23LO_GG_rpv_UDS_900_squarks.deriv.DAOD_SUSY4.e8258_s3126_r9364_p4237       
 mc16_13TeV:mc16_13TeV.504535.MGPy8EG_A14NNPDF23LO_GG_rpv_UDS_1000_squarks.deriv.DAOD_SUSY4.e8258_s3126_r9364_p4237      
 mc16_13TeV:mc16_13TeV.504536.MGPy8EG_A14NNPDF23LO_GG_rpv_UDS_1100_squarks.deriv.DAOD_SUSY4.e8258_s3126_r9364_p4237      
 mc16_13TeV:mc16_13TeV.504537.MGPy8EG_A14NNPDF23LO_GG_rpv_UDS_1200_squarks.deriv.DAOD_SUSY4.e8258_s3126_r9364_p4237      
 mc16_13TeV:mc16_13TeV.504538.MGPy8EG_A14NNPDF23LO_GG_rpv_UDS_1300_squarks.deriv.DAOD_SUSY4.e8258_s3126_r9364_p4237      
 mc16_13TeV:mc16_13TeV.504539.MGPy8EG_A14NNPDF23LO_GG_rpv_UDS_1400_squarks.deriv.DAOD_SUSY4.e8258_s3126_r9364_p4237      
 mc16_13TeV:mc16_13TeV.504540.MGPy8EG_A14NNPDF23LO_GG_rpv_UDS_1500_squarks.deriv.DAOD_SUSY4.e8258_s3126_r9364_p4237      
 mc16_13TeV:mc16_13TeV.504541.MGPy8EG_A14NNPDF23LO_GG_rpv_UDS_1600_squarks.deriv.DAOD_SUSY4.e8258_s3126_r9364_p4237      
 mc16_13TeV:mc16_13TeV.504542.MGPy8EG_A14NNPDF23LO_GG_rpv_UDS_1700_squarks.deriv.DAOD_SUSY4.e8258_s3126_r9364_p4237      
 mc16_13TeV:mc16_13TeV.504543.MGPy8EG_A14NNPDF23LO_GG_rpv_UDS_1800_squarks.deriv.DAOD_SUSY4.e8258_s3126_r9364_p4237      
 mc16_13TeV:mc16_13TeV.504544.MGPy8EG_A14NNPDF23LO_GG_rpv_UDS_1900_squarks.deriv.DAOD_SUSY4.e8258_s3126_r9364_p4237      
 mc16_13TeV:mc16_13TeV.504545.MGPy8EG_A14NNPDF23LO_GG_rpv_UDS_2000_squarks.deriv.DAOD_SUSY4.e8258_s3126_r9364_p4237      
 mc16_13TeV:mc16_13TeV.504546.MGPy8EG_A14NNPDF23LO_GG_rpv_UDS_2100_squarks.deriv.DAOD_SUSY4.e8258_s3126_r9364_p4237      
 mc16_13TeV:mc16_13TeV.504547.MGPy8EG_A14NNPDF23LO_GG_rpv_UDS_2200_squarks.deriv.DAOD_SUSY4.e8258_s3126_r9364_p4237      
 mc16_13TeV:mc16_13TeV.504548.MGPy8EG_A14NNPDF23LO_GG_rpv_UDS_2300_squarks.deriv.DAOD_SUSY4.e8258_s3126_r9364_p4237      
 mc16_13TeV:mc16_13TeV.504549.MGPy8EG_A14NNPDF23LO_GG_rpv_UDS_2400_squarks.deriv.DAOD_SUSY4.e8258_s3126_r9364_p4237      
 mc16_13TeV:mc16_13TeV.504550.MGPy8EG_A14NNPDF23LO_GG_rpv_UDS_2500_squarks.deriv.DAOD_SUSY4.e8258_s3126_r9364_p4237      
